{
  "id": "",
  "name": "",
  "font_family": "iconfont",
  "css_prefix_text": "icon-",
  "description": "",
  "glyphs": [
    {
      "icon_id": "2420038",
      "name": "guanbi",
      "font_class": "guanbi",
      "unicode": "e511",
      "unicode_decimal": 58641
    },
    {
      "icon_id": "2557520",
      "name": "user_interaction",
      "font_class": "user_interaction",
      "unicode": "ebec",
      "unicode_decimal": 60396
    },
    {
      "icon_id": "3357542",
      "name": "括号",
      "font_class": "kuohao",
      "unicode": "e60a",
      "unicode_decimal": 58890
    },
    {
      "icon_id": "4809606",
      "name": "web 22, code, inequa",
      "font_class": "webcodeinequa",
      "unicode": "f55f",
      "unicode_decimal": 62815
    },
    {
      "icon_id": "6756285",
      "name": "菜单",
      "font_class": "caidan",
      "unicode": "e605",
      "unicode_decimal": 58885
    },
    {
      "icon_id": "8362664",
      "name": "返回顶部",
      "font_class": "fanhuidingbu",
      "unicode": "e601",
      "unicode_decimal": 58881
    },
    {
      "icon_id": "9818667",
      "name": "括号",
      "font_class": "kuohao1",
      "unicode": "e649",
      "unicode_decimal": 58953
    },
    {
      "icon_id": "9865175",
      "name": "front-end monitoring",
      "font_class": "front-endmonitoring",
      "unicode": "e6f3",
      "unicode_decimal": 59123
    },
    {
      "icon_id": "10774125",
      "name": "full-stack-pms",
      "font_class": "full-stack-pms",
      "unicode": "e608",
      "unicode_decimal": 58888
    },
    {
      "icon_id": "11511336",
      "name": "design ／ right menu icon ／ active ／ 22 icon1备份 30(",
      "font_class": "designrightmenuiconactiveiconbeifen",
      "unicode": "e630",
      "unicode_decimal": 58928
    },
    {
      "icon_id": "11757917",
      "name": "SQL",
      "font_class": "SQL",
      "unicode": "e61f",
      "unicode_decimal": 58911
    },
    {
      "icon_id": "11904647",
      "name": "data-mining",
      "font_class": "data-mining",
      "unicode": "e623",
      "unicode_decimal": 58915
    },
    {
      "icon_id": "12554860",
      "name": "algorithm01",
      "font_class": "algorithm",
      "unicode": "e7a4",
      "unicode_decimal": 59300
    },
    {
      "icon_id": "14778603",
      "name": "machine learning",
      "font_class": "machinelearning",
      "unicode": "e661",
      "unicode_decimal": 58977
    }
  ]
}
